{
  "type": "object",
  "required": [
    "containerId",
    "itemProperties"
  ],
  "defaultProperties": [],
  "oneOf":[
    {
      "$ref": "CatalogProxyGroup.json"
    }
  ],
  "properties":{
    "type": {
      "type": "string",
      "enum": [
        "csw-resource"
      ]
    },
    "containerId": {
      "type": "string",
      "description": "metadata target UUID"
    },
    "itemProperties":{
      "type":"object",
      "anyOf":[
        {
          "type": "object",
          "title": "wms",
          "allOf": [
            {"$ref": "wms_properties.json"},
            {"$ref": "CatalogProperties.json"},
            {"$ref": "ImageryLayerCatalogItem.json"}
          ]
        },
        {
          "type": "object",
          "title": "wmts",
          "allOf": [
            {"$ref": "wmts_properties.json"},
            {"$ref": "CatalogProperties.json"},
            {"$ref": "ImageryLayerCatalogItem.json"}
          ]
        },
        {
          "type": "object",
          "title": "mvt",
          "allOf": [
            {"$ref": "mvt_properties.json"},
            {"$ref": "CatalogProperties.json"},
            {"$ref": "ImageryLayerCatalogItem.json"}
          ]
        }
      ],
      "ignoreUnknownTileErrors": {
        "type":"boolean",
        "format": "checkbox"
      }
    }
  }
}