{
  "type": "object",
  "required": [
    "type",
    "dataUrl"
  ],
  "allOf":[
    {
      "$ref": "CatalogItem.json"
    },
    {
      "$ref": "ImageryLayerCatalogItem.json"
    }
  ],
  "properties":{
    "type": {
      "type": "string",
      "enum": [
        "geojson"
      ]
    },
    "dataUrl": {
      "type": "string"
    }
  }
}