{
  "type": "object",
  "required": [
    "type",
    "layer"
  ],
  "allOf":[
    {
      "$ref": "CatalogItem.json"
    },
    {
      "$ref": "mvt_properties.json"
    },
    {
      "$ref": "ImageryLayerCatalogItem.json"
    }
  ],
  "properties":{
    "type": {
      "type": "string",
      "enum": [
        "mvt"
      ]
    }
  }
}