{
  "name": "{{dataset.title or dataset.name}}",
  "url": "{{resource.url}}",
  "description": "# Dataset:\n\n\n**Type:** {{dataset.type}}\n\n**Title:** {{dataset.title}}\n\n**Name:** {{dataset.name}}\n\n**Description:** {{dataset.notes}}\n\n{% if dataset.type=='dataset' %}\n## Dataset specific fields:\n\n\n**Maintainer:** {{dataset.maintainer}}\n\n**Maintainer email:** {{dataset.maintainer_email}}\n\n**Author:** {{dataset.author}}\n\n**Author email:** {{dataset.author_email}}\n\n\t{% if dataset.extras %}\n**Extras:**\n\t\t{% for e in dataset.extras %}\n\t\t- **{{e.key}}**: _{{e.value}}_\n\t\t{% endfor %}\n\t{% endif %}\n\n**License:** {{dataset.license_title}}\n\n**License url:** {{dataset.license_url}}\n\n{% elif dataset.type=='dcat' %}\n## DCAT specific fields:\n\n\n**Frequency:** {{dataset.frequency}}\n\n**Contact name:** {{dataset.contact_name}}\n\n**Publisher name:** {{dataset.publisher_name}}\n\n**Publisher url:** {{dataset.publisher_url}}\n\n**Provenance:** {{dataset.provenance}}\n\n**Theme:** {{dataset.theme}}\n\n**Spatial:** {{dataset.spatial_text}}\n\n{% endif %}\n\n{% if dataset.version %}\n**Version:** {{dataset.version}}\n{% endif %}\n\n{% if organization.image_url %}\n**Logo:** ![dataset Image]({{organization.image_url}})\n{% endif %}\n\n**Page:** [dataset page]({{ckan.base_url}}/{{dataset.type}}/{{dataset.name}})\n\n**State:** {{dataset.state}}\n\n**Private:** {{dataset.private}}\n\n**created on:** {{dataset.metadata_created}}\n\n**changed on:** {{dataset.metadata_modified}}\n\n\n# Resource:\n\n\n**Format:** {{resource.format|lower}}\n\n**Title:** {{resource.title}}\n\n**Name:** {{resource.name}}\n\n**Description:** {{resource.description}}\n\n{% if dataset.type=='dataset' %}\n\t{% if resource.url %}\n**URL:** [Resource url]({{resource.url}})\n\t{% endif %}\n\t\n{% elif dataset.type=='dcat' %}\n\n## DCAT specific fields:\n\n**License:** {{resource.license}}\n\n**Status:** {{resource.status}}\n\n**Issued**: {{resource.issued}}\n\n**Modified**: {{resource.modified}}\n\n**Languages:**\n\n\t{% for lang in resource.language %}\n - {{lang}}\n\t{% endfor %}\n\n{% endif %}\n\n**Size**: {{resource.size}}\n\n**State:** {{resource.state}}\n\n**MimeType:** {{resource.mimetype}}\n\n**Private:** {{resource.private}}\n\n**created on:** {{resource.created}}\n\n**changed on:** {{resource.last_modified}}\n\n\n# **Organization:**\n\n\n**Description:** {{organization.description}}\n\n**Title:** {{organization.title}}\n\n**Name:** {{organization.name}}\n\n{% if organization.image_url %}\n**Logo:** ![Organization Image]({{organization.image_url}})\n{% endif %}\n\n**Page:** [Organization page]({{ckan.base_url}}/organization/{{organization.name}})\n\n**License url:** {{organization.license_url}}\n\n**State:** {{organization.state}}",
  "id": "{{resource.id}}",
  "type": "mvt",
  "layer": "{{resource.name}}"
}